{
    "vbcs.dt.version": "20210607-21.10.0",
    "dependencies": {
        "upgrade": "micro",
        "paths": {
            "jet": "https://static.oracle.com/cdn/jet/10.1.3",
            "telemetry": "https://static.oracle.com/cdn/trace/3.0.0",
            "visualRuntime": "https://static.oracle.com/cdn/vb/2110.0.0"
        }
    },
    "source.version": "2110",
    "rootURL": "vbcs",
    "version": "0.1"
}